<svg width="30" height="30" viewBox="0 0 30 30" fill="none" xmlns="http://www.w3.org/2000/svg">
<path fill-rule="evenodd" clip-rule="evenodd" d="M20.3125 20.625V25.3124H15.9375V30H18.125V27.6562H22.5V20.625H20.3125Z" fill="url(#paint0_linear)"/>
<path fill-rule="evenodd" clip-rule="evenodd" d="M4.6875 25.3125H9.375V20.625H4.6875V25.3125Z" fill="url(#paint1_linear)"/>
<path fill-rule="evenodd" clip-rule="evenodd" d="M18.125 18.125H22.5V15.9375H15.9375V22.5H18.125V18.125Z" fill="url(#paint2_linear)"/>
<path fill-rule="evenodd" clip-rule="evenodd" d="M28.125 17.8125H30V15.9375H28.125V17.8125Z" fill="url(#paint3_linear)"/>
<path fill-rule="evenodd" clip-rule="evenodd" d="M25.3125 20.625H27.1875V18.75H25.3125V20.625Z" fill="url(#paint4_linear)"/>
<path fill-rule="evenodd" clip-rule="evenodd" d="M25.3848 25.3846H27.6925V26.5385C27.6925 27.1747 27.1749 27.6923 26.5387 27.6923H23.0771V30H26.5387C28.4474 30 30.0002 28.4472 30.0002 26.5385V23.0769H25.3848V25.3846Z" fill="url(#paint5_linear)"/>
<path fill-rule="evenodd" clip-rule="evenodd" d="M0 16.1538V26.5385C0 28.4471 1.55285 30 3.46154 30H13.8462V27.6923H3.46154C2.82531 27.6923 2.30769 27.1747 2.30769 26.5385V18.4615H11.5385V25.3846H13.8462V16.1538H0Z" fill="url(#paint6_linear)"/>
<mask id="mask0" mask-type="alpha" maskUnits="userSpaceOnUse" x="0" y="0" width="30" height="30">
<path fill-rule="evenodd" clip-rule="evenodd" d="M0 30H30V0H0V30Z" fill="white"/>
</mask>
<g mask="url(#mask0)">
<path fill-rule="evenodd" clip-rule="evenodd" d="M20.769 9.23077H25.3844V4.61539H20.769V9.23077Z" fill="url(#paint7_linear)"/>
<path fill-rule="evenodd" clip-rule="evenodd" d="M11.5386 13.8461H13.8463V11.5385H11.5386V13.8461Z" fill="url(#paint8_linear)"/>
<path fill-rule="evenodd" clip-rule="evenodd" d="M20.769 13.8461H23.0767V11.5385H20.769V13.8461Z" fill="url(#paint9_linear)"/>
<path fill-rule="evenodd" clip-rule="evenodd" d="M26.5384 0H16.1538V13.8462H18.4615V2.30769H26.5384C27.1747 2.30769 27.6923 2.82531 27.6923 3.46154V11.5385H25.3846V13.8462H30V3.46154C30 1.55285 28.447 0 26.5384 0" fill="url(#paint10_linear)"/>
<path fill-rule="evenodd" clip-rule="evenodd" d="M0 3.46154V13.8462H9.23077V11.5385H2.30769V3.46154C2.30769 2.82531 2.82531 2.30769 3.46154 2.30769H11.5385V9.23077H13.8462V0H3.46154C1.55285 0 0 1.55285 0 3.46154" fill="url(#paint11_linear)"/>
<path fill-rule="evenodd" clip-rule="evenodd" d="M4.61523 9.23077H9.23062V4.61539H4.61523V9.23077Z" fill="url(#paint12_linear)"/>
</g>
<defs>
<linearGradient id="paint0_linear" x1="2.78508" y1="31.6263" x2="33.248" y2="46.1213" gradientUnits="userSpaceOnUse">
<stop stop-color="#D0A166"/>
<stop offset="1" stop-color="#976F40"/>
</linearGradient>
<linearGradient id="paint1_linear" x1="-4.70709" y1="26.1256" x2="13.5451" y2="38.5325" gradientUnits="userSpaceOnUse">
<stop stop-color="#D0A166"/>
<stop offset="1" stop-color="#976F40"/>
</linearGradient>
<linearGradient id="paint2_linear" x1="2.78508" y1="23.6384" x2="28.3381" y2="41.008" gradientUnits="userSpaceOnUse">
<stop stop-color="#D0A166"/>
<stop offset="1" stop-color="#976F40"/>
</linearGradient>
<linearGradient id="paint3_linear" x1="24.3672" y1="18.1378" x2="31.668" y2="23.1005" gradientUnits="userSpaceOnUse">
<stop stop-color="#D0A166"/>
<stop offset="1" stop-color="#976F40"/>
</linearGradient>
<linearGradient id="paint4_linear" x1="21.5547" y1="20.9503" x2="28.8555" y2="25.913" gradientUnits="userSpaceOnUse">
<stop stop-color="#D0A166"/>
<stop offset="1" stop-color="#976F40"/>
</linearGradient>
<linearGradient id="paint5_linear" x1="9.20206" y1="31.201" x2="36.1591" y2="49.525" gradientUnits="userSpaceOnUse">
<stop stop-color="#D0A166"/>
<stop offset="1" stop-color="#976F40"/>
</linearGradient>
<linearGradient id="paint6_linear" x1="-27.7502" y1="32.4019" x2="26.1639" y2="69.0499" gradientUnits="userSpaceOnUse">
<stop stop-color="#D0A166"/>
<stop offset="1" stop-color="#976F40"/>
</linearGradient>
<linearGradient id="paint7_linear" x1="11.519" y1="10.0314" x2="29.4903" y2="22.2474" gradientUnits="userSpaceOnUse">
<stop stop-color="#D0A166"/>
<stop offset="1" stop-color="#976F40"/>
</linearGradient>
<linearGradient id="paint8_linear" x1="6.91355" y1="14.2465" x2="15.8992" y2="20.3545" gradientUnits="userSpaceOnUse">
<stop stop-color="#D0A166"/>
<stop offset="1" stop-color="#976F40"/>
</linearGradient>
<linearGradient id="paint9_linear" x1="16.144" y1="14.2465" x2="25.1297" y2="20.3545" gradientUnits="userSpaceOnUse">
<stop stop-color="#D0A166"/>
<stop offset="1" stop-color="#976F40"/>
</linearGradient>
<linearGradient id="paint10_linear" x1="-11.5964" y1="16.2481" x2="42.3177" y2="52.8961" gradientUnits="userSpaceOnUse">
<stop stop-color="#D0A166"/>
<stop offset="1" stop-color="#976F40"/>
</linearGradient>
<linearGradient id="paint11_linear" x1="-27.7502" y1="16.2481" x2="26.1639" y2="52.8961" gradientUnits="userSpaceOnUse">
<stop stop-color="#D0A166"/>
<stop offset="1" stop-color="#976F40"/>
</linearGradient>
<linearGradient id="paint12_linear" x1="-4.63482" y1="10.0314" x2="13.3365" y2="22.2474" gradientUnits="userSpaceOnUse">
<stop stop-color="#D0A166"/>
<stop offset="1" stop-color="#976F40"/>
</linearGradient>
</defs>
</svg>
