<svg width="56" height="78" viewBox="0 0 56 78" fill="none" xmlns="http://www.w3.org/2000/svg">
<path fill-rule="evenodd" clip-rule="evenodd" d="M28 56C43.464 56 56 43.464 56 28C56 12.536 43.464 0 28 0C12.536 0 0 12.536 0 28C0 43.464 12.536 56 28 56Z" fill="#969696"/>
<path fill-rule="evenodd" clip-rule="evenodd" d="M33.6667 34V38.9999H29V44H31.3333V41.5H36V34H33.6667Z" fill="white"/>
<path fill-rule="evenodd" clip-rule="evenodd" d="M17 39H22V34H17V39Z" fill="white"/>
<path fill-rule="evenodd" clip-rule="evenodd" d="M31.3333 31.3333H36V29H29V36H31.3333V31.3333Z" fill="white"/>
<path fill-rule="evenodd" clip-rule="evenodd" d="M42 31H44V29H42V31Z" fill="white"/>
<path fill-rule="evenodd" clip-rule="evenodd" d="M39 34H41V32H39V34Z" fill="white"/>
<path fill-rule="evenodd" clip-rule="evenodd" d="M39.0768 39.0769H41.5383V40.3077C41.5383 40.9863 40.9862 41.5384 40.3075 41.5384H36.6152V44H40.3075C42.3435 44 43.9998 42.3436 43.9998 40.3077V36.6154H39.0768V39.0769Z" fill="white"/>
<path fill-rule="evenodd" clip-rule="evenodd" d="M12 29.2307V40.3076C12 42.3435 13.6564 43.9999 15.6923 43.9999H26.7692V41.5384H15.6923C15.0137 41.5384 14.4615 40.9863 14.4615 40.3076V31.6923H24.3077V39.0769H26.7692V29.2307H12Z" fill="white"/>
<mask id="mask0" mask-type="alpha" maskUnits="userSpaceOnUse" x="12" y="12" width="32" height="32">
<path fill-rule="evenodd" clip-rule="evenodd" d="M12 44H44V12H12V44Z" fill="white"/>
</mask>
<g mask="url(#mask0)">
<path fill-rule="evenodd" clip-rule="evenodd" d="M34.1538 21.8462H39.0769V16.9231H34.1538V21.8462Z" fill="white"/>
<path fill-rule="evenodd" clip-rule="evenodd" d="M24.3076 26.7693H26.7692V24.3077H24.3076V26.7693Z" fill="white"/>
<path fill-rule="evenodd" clip-rule="evenodd" d="M34.1538 26.7693H36.6153V24.3077H34.1538V26.7693Z" fill="white"/>
<path fill-rule="evenodd" clip-rule="evenodd" d="M40.3079 12H29.231V26.7692H31.6925V14.4615H40.3079C40.9865 14.4615 41.5386 15.0137 41.5386 15.6923V24.3077H39.0771V26.7692H44.0002V15.6923C44.0002 13.6564 42.3437 12 40.3079 12Z" fill="white"/>
<path fill-rule="evenodd" clip-rule="evenodd" d="M12 15.6923V26.7692H21.8462V24.3077H14.4615V15.6923C14.4615 15.0137 15.0137 14.4615 15.6923 14.4615H24.3077V21.8462H26.7692V12H15.6923C13.6564 12 12 13.6564 12 15.6923Z" fill="white"/>
<path fill-rule="evenodd" clip-rule="evenodd" d="M16.9229 21.8462H21.8459V16.9231H16.9229V21.8462Z" fill="white"/>
</g>
<path d="M4.48839 70.716C4.48839 73.188 6.38439 75.144 8.83239 75.144C9.86439 75.144 10.7884 74.82 11.5204 74.232L12.5044 75.216L13.2004 74.472L12.1924 73.512C12.8044 72.768 13.1884 71.784 13.1884 70.716C13.1884 68.268 11.2924 66.384 8.83239 66.384C6.38439 66.384 4.48839 68.268 4.48839 70.716ZM5.71239 70.716C5.71239 68.844 7.08039 67.464 8.83239 67.464C10.5964 67.464 11.9644 68.844 11.9644 70.716C11.9644 71.46 11.7244 72.168 11.3404 72.696L10.3684 71.712L9.67239 72.456L10.6684 73.428C10.1764 73.824 9.46839 74.052 8.83239 74.052C7.08039 74.052 5.71239 72.612 5.71239 70.716ZM15.2985 75H16.4865V71.628H18.2985L20.0865 75H21.4305L19.6305 71.712C19.4745 71.436 19.3785 71.328 19.3785 71.328V71.304C20.3025 71.004 20.9025 70.092 20.9025 69.012C20.9025 67.896 20.3385 67.044 19.4745 66.72C19.1505 66.6 18.7785 66.528 17.8905 66.528H15.2985V75ZM16.4865 70.596V67.56H17.8545C18.5145 67.56 18.7905 67.632 19.0185 67.752C19.4505 67.992 19.6905 68.436 19.6905 69.06C19.6905 70.008 19.1145 70.596 18.1905 70.596H16.4865ZM25.92 74.028C25.92 74.028 26.928 75.144 28.728 75.144C30.408 75.144 31.416 74.064 31.416 72.756C31.416 70.008 27.312 70.476 27.312 68.724C27.312 68.052 27.948 67.488 28.848 67.488C29.928 67.488 30.708 68.22 30.708 68.22L31.248 67.236C31.248 67.236 30.42 66.384 28.848 66.384C27.252 66.384 26.112 67.428 26.112 68.748C26.112 71.352 30.216 70.956 30.216 72.792C30.216 73.596 29.544 74.04 28.752 74.04C27.492 74.04 26.592 73.128 26.592 73.128L25.92 74.028ZM32.6968 71.964C32.6968 73.788 34.0408 75.144 35.9488 75.144C37.5328 75.144 38.3728 74.172 38.3728 74.172L37.9048 73.32C37.9048 73.32 37.1608 74.136 36.0328 74.136C34.7728 74.136 33.8848 73.188 33.8848 71.952C33.8848 70.704 34.7728 69.792 35.9968 69.792C37.0288 69.792 37.6768 70.488 37.6768 70.488L38.2288 69.672C38.2288 69.672 37.4728 68.784 35.9488 68.784C34.0408 68.784 32.6968 70.164 32.6968 71.964ZM39.4493 73.296C39.4493 74.508 40.4693 75.144 41.5133 75.144C42.9653 75.144 43.4573 73.944 43.4573 73.944H43.4813C43.4813 73.944 43.4573 74.148 43.4573 74.424V75H44.5373V71.16C44.5373 69.624 43.6733 68.784 42.1373 68.784C40.7453 68.784 39.8693 69.504 39.8693 69.504L40.3493 70.356C40.3493 70.356 41.1053 69.768 42.0413 69.768C42.8093 69.768 43.3733 70.104 43.3733 71.1V71.208H43.1093C42.0893 71.208 39.4493 71.292 39.4493 73.296ZM40.6253 73.236C40.6253 72.144 42.2093 72.084 43.0853 72.084H43.3853V72.276C43.3853 73.176 42.7493 74.208 41.7653 74.208C41.0093 74.208 40.6253 73.728 40.6253 73.236ZM46.5311 75H47.6951V72.156C47.6951 71.856 47.7191 71.58 47.7911 71.34C48.0431 70.464 48.7871 69.852 49.7111 69.852C50.6831 69.852 50.8631 70.524 50.8631 71.376V75H52.0271V71.112C52.0271 69.564 51.3671 68.784 49.9391 68.784C48.6191 68.784 47.8991 69.648 47.6591 70.176H47.6351C47.6351 70.176 47.6591 69.972 47.6591 69.732V68.928H46.5311V75Z" fill="white"/>
</svg>
